module gitlab.com/pureharvest/dfmigrate

go 1.23

toolchain go1.23.0

require (
	github.com/andybalholm/crlf v0.0.0-20171020200849-670099aa064f
	github.com/bmizerany/assert v0.0.0-20160611221934-b7ed37b82869
	github.com/denisenkom/go-mssqldb v0.12.3
	github.com/ghodss/yaml v1.0.0
	github.com/lib/pq v1.10.3
	github.com/pkg/errors v0.9.1
	github.com/spf13/cobra v1.2.1
	github.com/spf13/viper v1.19.0
	github.com/stretchr/testify v1.9.0
	gitlab.com/pureharvest/df32 v0.2.0
	golang.org/x/text v0.17.0
)

require (
	github.com/pelletier/go-toml/v2 v2.2.2 // indirect
	github.com/sagikazarmark/locafero v0.4.0 // indirect
	github.com/sagikazarmark/slog-shim v0.1.0 // indirect
	github.com/sourcegraph/conc v0.3.0 // indirect
	go.uber.org/atomic v1.9.0 // indirect
	go.uber.org/multierr v1.9.0 // indirect
	golang.org/x/exp v0.0.0-20230905200255-921286631fa9 // indirect
)

require (
	github.com/davecgh/go-spew v1.1.2-0.20180830191138-d8f796af33cc // indirect
	github.com/fsnotify/fsnotify v1.7.0 // indirect
	github.com/golang-sql/civil v0.0.0-20220223132316-b832511892a9 // indirect
	github.com/golang-sql/sqlexp v0.1.0 // indirect
	github.com/hashicorp/hcl v1.0.0 // indirect
	github.com/inconshreveable/mousetrap v1.0.0 // indirect
	github.com/kr/pretty v0.3.1 // indirect
	github.com/kr/text v0.2.0 // indirect
	github.com/magiconair/properties v1.8.7 // indirect
	github.com/microsoft/go-mssqldb v1.7.2
	github.com/mitchellh/mapstructure v1.5.0 // indirect
	github.com/pelletier/go-toml v1.9.4 // indirect
	github.com/pmezard/go-difflib v1.0.1-0.20181226105442-5d4384ee4fb2 // indirect
	github.com/rogpeppe/go-internal v1.9.0 // indirect
	github.com/shopspring/decimal v1.2.0 // indirect
	github.com/spf13/afero v1.11.0 // indirect
	github.com/spf13/cast v1.6.0 // indirect
	github.com/spf13/jwalterweatherman v1.1.0 // indirect
	github.com/spf13/pflag v1.0.5 // indirect
	github.com/subosito/gotenv v1.6.0 // indirect
	golang.org/x/crypto v0.21.0 // indirect
	golang.org/x/sys v0.18.0 // indirect
	gopkg.in/ini.v1 v1.67.0 // indirect
	gopkg.in/yaml.v2 v2.4.0 // indirect
	gopkg.in/yaml.v3 v3.0.1 // indirect
)
